<?xml version="1.0" standalone="no"?>
<!DOCTYPE svg PUBLIC "-//W3C//DTD SVG 1.1//EN" "http://www.w3.org/Graphics/SVG/1.1/DTD/svg11.dtd">
<svg xmlns="http://www.w3.org/2000/svg">
<metadata>Copyright (C) 2016 by original authors @ fontello.com</metadata>
<defs>
<font id="fontello" horiz-adv-x="1000" >
<font-face font-family="fontello" font-weight="400" font-stretch="normal" units-per-em="1000" ascent="850" descent="-150" />
<missing-glyph horiz-adv-x="1000" />
<glyph glyph-name="angle-left" unicode="&#xe800;" d="M350 546q0-7-6-12l-219-220 219-219q6-6 6-13t-6-13l-28-28q-5-5-12-5t-13 5l-260 260q-6 6-6 13t6 13l260 260q5 6 13 6t12-6l28-28q6-5 6-13z" horiz-adv-x="357.1" />

<glyph glyph-name="angle-right" unicode="&#xe801;" d="M332 314q0-7-6-13l-260-260q-5-5-12-5t-13 5l-28 28q-6 6-6 13t6 13l219 219-219 220q-6 5-6 12t6 13l28 28q5 6 13 6t12-6l260-260q6-5 6-13z" horiz-adv-x="357.1" />

<glyph glyph-name="angle-up" unicode="&#xe802;" d="M600 189q0-7-6-13l-28-27q-5-6-12-6t-13 6l-220 219-219-219q-5-6-13-6t-13 6l-27 27q-6 6-6 13t6 13l260 260q5 6 12 6t13-6l260-260q6-5 6-13z" horiz-adv-x="642.9" />

<glyph glyph-name="angle-down" unicode="&#xe803;" d="M600 439q0-7-6-13l-260-260q-5-5-13-5t-12 5l-260 260q-6 6-6 13t6 13l27 28q6 6 13 6t13-6l219-219 220 219q5 6 13 6t12-6l28-28q6-5 6-13z" horiz-adv-x="642.9" />

<glyph glyph-name="bell" unicode="&#xe804;" d="M374 841c-81-23-136-59-180-121-23-33-36-60-49-105-8-28-9-51-12-180l-3-149-15-27c-8-15-32-51-54-80-57-78-67-99-54-126 14-29 27-32 149-33l108-1 5-31c14-75 75-128 150-133 40-2 68 5 100 25 41 26 75 78 75 115 0 7 1 15 3 18 3 4 35 6 113 7 123 1 133 4 147 33 11 23 3 43-41 99-43 55-63 87-77 122-10 24-10 35-13 174-3 147-3 149-15 185-34 98-100 165-191 197-37 13-116 19-146 11z m128-74c50-17 103-63 130-112 26-49 30-80 31-225 0-107 1-135 7-160 10-37 38-86 79-139 18-22 32-42 32-44 0-2-158-4-352-4-197 0-351 2-351 4 0 2 15 25 35 51 83 112 84 115 88 306 2 98 5 154 9 166 26 83 102 153 179 167 32 5 81 1 113-10z m28-762c0-18-14-44-31-60-51-49-139-27-163 41-12 35-19 33 93 33l101 0 0-14z" horiz-adv-x="863" />

<glyph glyph-name="clock" unicode="&#xe805;" d="M500 546v-250q0-7-5-12t-13-5h-178q-8 0-13 5t-5 12v36q0 8 5 13t13 5h125v196q0 8 5 13t12 5h36q8 0 13-5t5-13z m232-196q0 83-41 152t-110 111-152 41-153-41-110-111-41-152 41-152 110-111 153-41 152 41 110 111 41 152z m125 0q0-117-57-215t-156-156-215-58-216 58-155 156-58 215 58 215 155 156 216 58 215-58 156-156 57-215z" horiz-adv-x="857.1" />

<glyph glyph-name="soccer-ball" unicode="&#xe806;" d="M340 395l160 116 160-116-61-188h-198z m160 455q102 0 194-40t160-106 106-160 40-194-40-194-106-160-160-106-194-40-194 40-160 106-106 160-40 194 40 194 106 160 160 106 194 40z m345-753q84 113 84 253v2l-57-50-134 125 35 180 75-6q-84 115-217 157l29-69-160-89-160 89 29 69q-133-42-217-157l76 6 34-180-134-125-57 50v-2q0-140 84-253l16 73 182-22 78-166-65-39q65-22 134-22t134 22l-65 39 78 166 182 22z" horiz-adv-x="1000" />

<glyph glyph-name="trash-empty" unicode="&#xe807;" d="M286 439v-321q0-8-5-13t-13-5h-36q-8 0-13 5t-5 13v321q0 8 5 13t13 5h36q8 0 13-5t5-13z m143 0v-321q0-8-5-13t-13-5h-36q-8 0-13 5t-5 13v321q0 8 5 13t13 5h36q8 0 13-5t5-13z m142 0v-321q0-8-5-13t-12-5h-36q-8 0-13 5t-5 13v321q0 8 5 13t13 5h36q7 0 12-5t5-13z m72-404v529h-500v-529q0-12 4-22t8-15 6-5h464q2 0 6 5t8 15 4 22z m-375 601h250l-27 65q-4 5-9 6h-177q-6-1-10-6z m518-18v-36q0-8-5-13t-13-5h-54v-529q0-46-26-80t-63-34h-464q-37 0-63 33t-27 79v531h-53q-8 0-13 5t-5 13v36q0 8 5 13t13 5h172l39 93q9 21 31 35t44 15h178q22 0 44-15t30-35l39-93h173q8 0 13-5t5-13z" horiz-adv-x="785.7" />

<glyph glyph-name="trash" unicode="&#xe808;" d="M286 82v393q0 8-5 13t-13 5h-36q-8 0-13-5t-5-13v-393q0-8 5-13t13-5h36q8 0 13 5t5 13z m143 0v393q0 8-5 13t-13 5h-36q-8 0-13-5t-5-13v-393q0-8 5-13t13-5h36q8 0 13 5t5 13z m142 0v393q0 8-5 13t-12 5h-36q-8 0-13-5t-5-13v-393q0-8 5-13t13-5h36q7 0 12 5t5 13z m-303 554h250l-27 65q-4 5-9 6h-177q-6-1-10-6z m518-18v-36q0-8-5-13t-13-5h-54v-529q0-46-26-80t-63-34h-464q-37 0-63 33t-27 79v531h-53q-8 0-13 5t-5 13v36q0 8 5 13t13 5h172l39 93q9 21 31 35t44 15h178q22 0 44-15t30-35l39-93h173q8 0 13-5t5-13z" horiz-adv-x="785.7" />

<glyph glyph-name="filter" unicode="&#xe809;" d="M783 685q9-23-8-39l-275-275v-414q0-23-22-33-7-3-14-3-15 0-25 11l-143 143q-10 11-10 25v271l-275 275q-18 16-8 39 9 22 33 22h714q23 0 33-22z" horiz-adv-x="785.7" />

<glyph glyph-name="add" unicode="&#xe80a;" d="M189 836c-32-18-49-52-50-97l0-37-50 0c-36 0-54-5-69-20-19-19-20-33-20-399 0-369 1-381 20-401 21-22 21-22 440-22l420 0 20 26c20 25 21 37 21 391 0 257-3 372-12 390-12 27-27 33-92 37l-40 2-3 46c-4 55-31 86-84 95-73 12-126-35-126-111l0-34-104 0-104 0 0 34c0 47-18 83-50 100-35 17-85 18-117 0z m87-69c8-9 11-45 9-97l-3-82-34 0-35 0-3 82c-3 86 5 111 38 111 9 0 22-6 28-14z m425 2c14-14 16-155 3-174-5-8-21-12-37-10l-28 3-3 88c-3 90 2 104 38 105 8 0 20-5 27-12z m151-558l0-282-392 0-391 0 0 282 0 283 391 0 392 0 0-283z m-426 104l0-69-70 0-69 0 0-35 0-34 69 0 70 0 0-70 0-69 34 0 35 0 0 69 0 70 69 0 70 0 0 34 0 35-70 0-69 0 0 69 0 70-35 0-34 0 0-70z" horiz-adv-x="921" />

<glyph glyph-name="attendance" unicode="&#xe80b;" d="M337 831c-46-28-64-60-64-110 0-39 6-51 39-84 32-32 47-39 79-39 53 0 104 35 123 84 41 106-80 207-177 149z m-94-271c-21-17-22-25-19-159l3-142 33-3 32-3 3-123 3-123 89-3c57-2 95 1 104 9 11 9 14 40 14 126 0 113 0 115 23 115 43 0 48 16 48 154 0 173 5 169-176 169-114 0-138-3-157-17z m-89-443c-136-37-184-94-133-160 54-68 208-102 423-94 154 6 239 25 298 66 34 23 42 34 44 66 5 61-34 93-147 123-71 19-96 13-91-22 3-24 13-30 83-53 103-33 104-49 10-82-64-22-85-24-242-25-175 0-259 13-311 50-19 13-18 16 14 35 19 11 58 26 87 32 57 13 77 37 53 65-15 18-20 18-88-1z" horiz-adv-x="798" />

<glyph glyph-name="compass" unicode="&#xe80c;" d="M411 839c-201-30-374-209-404-420-43-294 189-559 488-559 299 0 531 265 488 559-39 277-292 463-572 420z m264-85c283-133 350-494 133-712-113-112-281-158-423-117-84 25-146 62-203 117-236 236-134 628 189 736 25 8 77 12 139 10 87-2 107-6 165-34z m-250-39c0-26-1-27-9-6-5 12-16 22-25 22-32 0-133-59-178-105-44-43-46-48-29-60 10-7 15-16 11-19-4-4-13-1-22 6-13 11-18 6-35-35-28-62-44-158-35-206 6-31 10-36 27-31 11 4 19 2 19-4 0-6-6-11-14-11-8 0-17-4-20-9-11-17 63-148 108-188 47-45 59-49 68-26 3 8 11 15 17 15 8 0 8-4-1-15-21-26-3-44 67-64 47-14 88-20 132-18 59 3 63 5 61 26-2 11 2 21 7 21 6 0 10-9 10-20 0-16 4-19 23-14 55 17 115 52 164 101 54 51 54 52 36 72-19 21-8 29 13 8 17-17 59 83 67 157 9 80 0 112-29 113l-21 0 21 11c20 10 21 12 7 52-18 53-75 134-113 163-29 22-31 22-50 5-21-19-24-13-9 16 17 31-64 61-175 67l-92 4-1-28z m276-114c-8-13-50-84-95-157-70-117-93-145-179-226-55-49-114-103-132-118-33-27-33-27-17-2 8 13 52 85 96 159 75 124 89 143 204 249 69 64 128 116 131 116 4 0 0-10-8-21z" horiz-adv-x="990" />

<glyph glyph-name="selectopener" unicode="&#xe80d;" d="M162 655l-162-186 335 0 335 0-166 186c-91 103-169 187-173 187-4 0-80-84-169-187z m-109-485c29-34 102-117 162-186 60-70 111-126 116-126 4 0 82 84 173 187l166 186-336 0-336 0 55-61z" horiz-adv-x="669" />

<glyph glyph-name="cancel" unicode="&#xe80e;" d="M0 90q0 36 26 62l195 195-195 196q-26 25-26 61t26 61 61 25 61-25l196-196 195 196q25 25 61 25t61-25 25-61-25-61l-195-196 195-195q25-26 25-62t-25-61q-25-25-61-25t-61 25l-195 195-196-195q-25-25-61-25t-61 25q-26 26-26 61z" horiz-adv-x="686.5" />

<glyph glyph-name="close" unicode="&#xe80f;" d="M45 804l-45-45 204-205 205-204-205-204-204-206 46-45 45-45 205 204 204 205 204-205 206-204 45 46 45 45-204 205-205 204 205 204 204 206-46 45-45 45-205-204-204-205-204 205-206 204-45-46z" horiz-adv-x="1000" />

<glyph glyph-name="add2" unicode="&#xe810;" d="M468 618l-3-233-232-3-233-1 0-31 0-31 233-1 232-3 3-232 1-233 31 0 31 0 1 233 3 232 233 3 232 1 0 31 0 31-232 1-233 3-3 233-1 232-31 0-31 0-1-232z" horiz-adv-x="1000" />

<glyph glyph-name="calender" unicode="&#xe811;" d="M300 831c-5-11-10-29-10-40 0-18-8-20-121-23-118-3-121-4-145-31l-24-28 0-394c0-268 4-402 11-418 6-14 22-30 36-36 34-15 872-15 906 0 14 6 30 22 36 36 7 16 11 150 11 418l0 394-24 28c-24 27-27 28-145 31-117 4-121 4-121 26 0 37-23 60-53 52-23-5-27-12-27-41l0-35-124 0-124 0-6 34c-9 47-56 64-76 27z m-10-174c0-67 73-77 86-12l6 35 124 0 124 0 0-35c0-29 4-36 27-41 30-8 53 15 53 53 0 23 2 23 105 23l105 0-2-372-3-373-415 0-415 0-3 373-2 372 105 0c103 0 105 0 105-23z m-102-148c-14-8-18-24-18-72 0-36 5-68 12-75 16-16 120-16 136 0 7 7 12 39 12 75 0 51-3 64-19 73-25 13-101 13-123-1z m250 0c-14-8-18-24-18-72 0-36 5-68 12-75 16-16 120-16 136 0 7 7 12 39 12 75 0 51-3 64-19 73-25 13-101 13-123-1z m250 0c-14-8-18-24-18-72 0-36 5-68 12-75 16-16 120-16 136 0 7 7 12 39 12 75 0 51-3 64-19 73-25 13-101 13-123-1z m-500-250c-14-8-18-24-18-72 0-36 5-68 12-75 16-16 120-16 136 0 7 7 12 39 12 75 0 51-3 64-19 73-25 13-101 13-123-1z m250 0c-14-8-18-24-18-72 0-36 5-68 12-75 16-16 120-16 136 0 7 7 12 39 12 75 0 51-3 64-19 73-25 13-101 13-123-1z m250 0c-14-8-18-24-18-72 0-36 5-68 12-75 16-16 120-16 136 0 7 7 12 39 12 75 0 51-3 64-19 73-25 13-101 13-123-1z" horiz-adv-x="1000" />

<glyph glyph-name="setting" unicode="&#xe812;" d="M411 839c-201-30-374-209-404-420-43-294 189-559 488-559 299 0 531 265 488 559-39 277-292 463-572 420z m230-89l54-21-50-51-50-51-100 1-100 0-49 50-50 48 41 18c92 41 204 43 304 6z m-64-202c19-8 49-29 67-46 116-117 61-313-102-357-160-41-308 135-243 289 19 44 69 95 111 114 42 18 124 18 167 0z m-356-194l-1-101-51-49-49-51-17 39c-42 100-42 227 1 325l16 39 51-51 52-50-2-101z m674 141c35-90 31-209-9-305l-16-37-49 51-51 49-1 101 0 101 48 49c27 27 51 46 55 41 3-4 14-27 23-50z m-351-420l49 10 52-53c28-29 50-54 47-57-18-18-137-46-197-46-59 0-179 28-197 46-3 3 19 28 48 57l51 53 50-10c31-6 65-6 97 0z" horiz-adv-x="990" />
</font>
</defs>
</svg>